Standardise Variable Values With Fuzzy Logic And Correspondence Tables • costly
…
This method will replace every previously invalid seed dataset
variable value with the best available match identified by the selected
fuzzy logic algorithm.

X@results_ls$Country_Output_Validation$Invalid_Values

## character(0)

However, some of the replacements will be spurious as can be seen by
inspecting the record of the replacements made.

X@results_ls$Country_Output_Correspondences

## # A tibble: 42 × 2
##    old_nms_chr               new_nms_chr                          
##    <chr>                     <chr>                                
##  1 Azores                    Timor-Leste                          
##  2 Bolivia                   Bolivia, Plurinational State of      
##  3 British Virgin Islands    Virgin Islands, British              
##  4 Brunei                    Brunei Darussalam                    
##  5 Canary Islands            Åland Islands                        
##  6 Cape Verde                Cabo Verde                           
##  7 Congo Democratic Republic Congo, The Democratic Republic of the
##  8 Czech Republic            Czechia                              
##  9 East Timor                Eswatini                             
## 10 Easter Island             Christmas Island                     
## # ℹ 32 more rows
…
X <- renew(X, "jw", type_1L_chr = "slot", what_1L_chr = "logic") 

We now rerun our ratify method (which in this example will combine
fuzzy logic with lookups from the manually created correspondences
table).

X <- ratify(X, new_val_xx = a)

We once again inspect results.

Our correspondences table looks better.

X@results_ls$Country_Output_Correspondences

## # A tibble: 42 × 2
##    old_nms_chr               new_nms_chr                          
##    <chr>                     <chr>                                
##  1 Azores                    Portugal                             
##  2 Bolivia                   Bolivia, Plurinational State of      
##  3 British Virgin Islands    Virgin Islands, British              
##  4 Brunei                    Brunei Darussalam                    
##  5 Canary Islands            Spain                                
##  6 Cape Verde                Cabo Verde                           
##  7 Congo Democratic Republic Congo, The Democratic Republic of the
##  8 Czech Republic            Czechia                              
##  9 East Timor                Timor-Leste                          
## 10 Easter Island             Chile                                
## # ℹ 32 more rows
…
